<?xml version="1.0" encoding="UTF-8" standalone="no"?>
<!-- Created with Inkscape (http://www.inkscape.org/) -->

<svg
   xmlns:osb="http://www.openswatchbook.org/uri/2009/osb"
   xmlns:dc="http://purl.org/dc/elements/1.1/"
   xmlns:cc="http://creativecommons.org/ns#"
   xmlns:rdf="http://www.w3.org/1999/02/22-rdf-syntax-ns#"
   xmlns:svg="http://www.w3.org/2000/svg"
   xmlns="http://www.w3.org/2000/svg"
   xmlns:sodipodi="http://sodipodi.sourceforge.net/DTD/sodipodi-0.dtd"
   xmlns:inkscape="http://www.inkscape.org/namespaces/inkscape"
   width="512mm"
   height="256mm"
   viewBox="0 0 1814.1733 907.08662"
   id="svg2"
   version="1.1"
   inkscape:version="0.91 r13725"
   sodipodi:docname="data.svg"
   inkscape:export-filename="C:\Projects\tactics-2\data\tank2.png"
   inkscape:export-xdpi="90"
   inkscape:export-ydpi="90">
  <sodipodi:namedview
     id="base"
     pagecolor="#ffffff"
     bordercolor="#666666"
     borderopacity="1.0"
     inkscape:pageopacity="0.0"
     inkscape:pageshadow="2"
     inkscape:zoom="2.7533216"
     inkscape:cx="172.85457"
     inkscape:cy="113.3625"
     inkscape:document-units="px"
     inkscape:current-layer="layer1"
     showgrid="true"
     inkscape:window-width="1920"
     inkscape:window-height="1058"
     inkscape:window-x="-8"
     inkscape:window-y="-8"
     inkscape:window-maximized="1"
     showguides="false">
    <inkscape:grid
       id="grid3344"
       type="xygrid" />
  </sodipodi:namedview>
  <defs
     id="defs4">
    <marker
       inkscape:stockid="DotM"
       orient="auto"
       refY="0"
       refX="0"
       id="marker4597"
       style="overflow:visible"
       inkscape:isstock="true">
      <path
         id="path4599"
         d="m -2.5,-1 c 0,2.76 -2.24,5 -5,5 -2.76,0 -5,-2.24 -5,-5 0,-2.76 2.24,-5 5,-5 2.76,0 5,2.24 5,5 z"
         style="fill:#808080;fill-opacity:0.50196078;fill-rule:evenodd;stroke:#808080;stroke-width:1pt;stroke-opacity:0.50196078"
         transform="matrix(0.4,0,0,0.4,2.96,0.4)"
         inkscape:connector-curvature="0" />
    </marker>
    <marker
       inkscape:stockid="DotM"
       orient="auto"
       refY="0"
       refX="0"
       id="marker4593"
       style="overflow:visible"
       inkscape:isstock="true">
      <path
         id="path4595"
         d="m -2.5,-1 c 0,2.76 -2.24,5 -5,5 -2.76,0 -5,-2.24 -5,-5 0,-2.76 2.24,-5 5,-5 2.76,0 5,2.24 5,5 z"
         style="fill:#808080;fill-opacity:0.50196078;fill-rule:evenodd;stroke:#808080;stroke-width:1pt;stroke-opacity:0.50196078"
         transform="matrix(0.4,0,0,0.4,2.96,0.4)"
         inkscape:connector-curvature="0" />
    </marker>
    <marker
       inkscape:stockid="SquareM"
       orient="auto"
       refY="0"
       refX="0"
       id="SquareM"
       style="overflow:visible"
       inkscape:isstock="true">
      <path
         id="path4291"
         d="M -5,-5 -5,5 5,5 5,-5 -5,-5 Z"
         style="fill:#808080;fill-opacity:0.50196078;fill-rule:evenodd;stroke:#808080;stroke-width:1pt;stroke-opacity:0.50196078"
         transform="scale(0.4,0.4)"
         inkscape:connector-curvature="0" />
    </marker>
    <marker
       inkscape:stockid="Arrow1Sstart"
       orient="auto"
       refY="0"
       refX="0"
       id="Arrow1Sstart"
       style="overflow:visible"
       inkscape:isstock="true">
      <path
         id="path4230"
         d="M 0,0 5,-5 -12.5,0 5,5 0,0 Z"
         style="fill:#808080;fill-opacity:0.50196078;fill-rule:evenodd;stroke:#808080;stroke-width:1pt;stroke-opacity:0.50196078"
         transform="matrix(0.2,0,0,0.2,1.2,0)"
         inkscape:connector-curvature="0" />
    </marker>
    <marker
       style="overflow:visible"
       inkscape:stockid="InfiniteLineEnd"
       id="InfiniteLineEnd"
       refX="0"
       refY="0"
       orient="auto"
       inkscape:isstock="true">
      <g
         id="g4453"
         style="fill:#808080;fill-opacity:0.50196078;stroke:#808080;stroke-opacity:0.50196078">
        <circle
           id="circle4455"
           r="0.80000001"
           cy="0"
           cx="3"
           style="fill:#808080;fill-opacity:0.50196078;stroke:#808080;stroke-opacity:0.50196078" />
        <circle
           id="circle4457"
           r="0.80000001"
           cy="0"
           cx="6.5"
           style="fill:#808080;fill-opacity:0.50196078;stroke:#808080;stroke-opacity:0.50196078" />
        <circle
           id="circle4459"
           r="0.80000001"
           cy="0"
           cx="10"
           style="fill:#808080;fill-opacity:0.50196078;stroke:#808080;stroke-opacity:0.50196078" />
      </g>
    </marker>
    <marker
       inkscape:stockid="CurvyCross"
       orient="auto"
       refY="0"
       refX="0"
       id="CurvyCross"
       style="overflow:visible"
       inkscape:isstock="true">
      <g
         id="g4408"
         transform="scale(0.6,0.6)"
         style="fill:#808080;fill-opacity:0.50196078;stroke:#808080;stroke-opacity:0.50196078">
        <path
           id="path4410"
           d="m 4.625493,-5.0456926 c -2.76,0 -5.00000002,2.24 -5.00000002,5.00000002 0,2.75999998 2.24000002,4.99999998 5.00000002,4.99999998"
           style="fill:#808080;fill-opacity:0.50196078;fill-rule:evenodd;stroke:#808080;stroke-width:1pt;stroke-opacity:0.50196078"
           inkscape:connector-curvature="0" />
        <path
           id="path4412"
           d="m -5.4129913,-5.0456926 c 2.76,0 4.99999999,2.24 4.99999999,5.00000002 0,2.75999998 -2.23999999,4.99999998 -4.99999999,4.99999998"
           style="fill:#808080;fill-opacity:0.50196078;fill-rule:evenodd;stroke:#808080;stroke-width:1pt;stroke-opacity:0.50196078"
           inkscape:connector-curvature="0" />
      </g>
    </marker>
    <marker
       inkscape:stockid="EmptyDiamondM"
       orient="auto"
       refY="0"
       refX="0"
       id="marker4576"
       style="overflow:visible"
       inkscape:isstock="true">
      <path
         id="path4578"
         d="M 0,-7.0710768 -7.0710894,0 0,7.0710589 7.0710462,0 0,-7.0710768 Z"
         style="fill:#ffffff;fill-rule:evenodd;stroke:#808080;stroke-width:1pt;stroke-opacity:0.50196078"
         transform="scale(0.4,0.4)"
         inkscape:connector-curvature="0" />
    </marker>
    <marker
       inkscape:stockid="EmptyDiamondL"
       orient="auto"
       refY="0"
       refX="0"
       id="EmptyDiamondL"
       style="overflow:visible"
       inkscape:isstock="true">
      <path
         id="path4324"
         d="M 0,-7.0710768 -7.0710894,0 0,7.0710589 7.0710462,0 0,-7.0710768 Z"
         style="fill:#ffffff;fill-rule:evenodd;stroke:#808080;stroke-width:1pt;stroke-opacity:0.50196078"
         transform="scale(0.8,0.8)"
         inkscape:connector-curvature="0" />
    </marker>
    <marker
       inkscape:stockid="Tail"
       orient="auto"
       refY="0"
       refX="0"
       id="marker4558"
       style="overflow:visible"
       inkscape:isstock="true">
      <g
         id="g4560"
         transform="scale(-1.2,-1.2)"
         style="fill:#808080;fill-opacity:0.50196078;stroke:#808080;stroke-opacity:0.50196078">
        <path
           id="path4562"
           d="M -3.8048674,-3.9585227 0.54352094,0"
           style="fill:#808080;fill-opacity:0.50196078;fill-rule:evenodd;stroke:#808080;stroke-width:0.80000001;stroke-linecap:round;stroke-opacity:0.50196078"
           inkscape:connector-curvature="0" />
        <path
           id="path4564"
           d="M -1.2866832,-3.9585227 3.0617053,0"
           style="fill:#808080;fill-opacity:0.50196078;fill-rule:evenodd;stroke:#808080;stroke-width:0.80000001;stroke-linecap:round;stroke-opacity:0.50196078"
           inkscape:connector-curvature="0" />
        <path
           id="path4566"
           d="M 1.3053582,-3.9585227 5.6537466,0"
           style="fill:#808080;fill-opacity:0.50196078;fill-rule:evenodd;stroke:#808080;stroke-width:0.80000001;stroke-linecap:round;stroke-opacity:0.50196078"
           inkscape:connector-curvature="0" />
        <path
           id="path4568"
           d="M -3.8048674,4.1775838 0.54352094,0.21974226"
           style="fill:#808080;fill-opacity:0.50196078;fill-rule:evenodd;stroke:#808080;stroke-width:0.80000001;stroke-linecap:round;stroke-opacity:0.50196078"
           inkscape:connector-curvature="0" />
        <path
           id="path4570"
           d="M -1.2866832,4.1775838 3.0617053,0.21974226"
           style="fill:#808080;fill-opacity:0.50196078;fill-rule:evenodd;stroke:#808080;stroke-width:0.80000001;stroke-linecap:round;stroke-opacity:0.50196078"
           inkscape:connector-curvature="0" />
        <path
           id="path4572"
           d="M 1.3053582,4.1775838 5.6537466,0.21974226"
           style="fill:#808080;fill-opacity:0.50196078;fill-rule:evenodd;stroke:#808080;stroke-width:0.80000001;stroke-linecap:round;stroke-opacity:0.50196078"
           inkscape:connector-curvature="0" />
      </g>
    </marker>
    <marker
       inkscape:stockid="DiamondLend"
       orient="auto"
       refY="0"
       refX="0"
       id="DiamondLend"
       style="overflow:visible"
       inkscape:isstock="true">
      <path
         id="path4315"
         d="M 0,-7.0710768 -7.0710894,0 0,7.0710589 7.0710462,0 0,-7.0710768 Z"
         style="fill:#808080;fill-opacity:0.50196078;fill-rule:evenodd;stroke:#808080;stroke-width:1pt;stroke-opacity:0.50196078"
         transform="matrix(0.8,0,0,0.8,-5.6,0)"
         inkscape:connector-curvature="0" />
    </marker>
    <marker
       inkscape:stockid="SquareS"
       orient="auto"
       refY="0"
       refX="0"
       id="SquareS"
       style="overflow:visible"
       inkscape:isstock="true">
      <path
         id="path4294"
         d="M -5,-5 -5,5 5,5 5,-5 -5,-5 Z"
         style="fill:#808080;fill-opacity:0.50196078;fill-rule:evenodd;stroke:#808080;stroke-width:1pt;stroke-opacity:0.50196078"
         transform="scale(0.2,0.2)"
         inkscape:connector-curvature="0" />
    </marker>
    <marker
       inkscape:stockid="DiamondL"
       orient="auto"
       refY="0"
       refX="0"
       id="marker4550"
       style="overflow:visible"
       inkscape:isstock="true">
      <path
         id="path4552"
         d="M 0,-7.0710768 -7.0710894,0 0,7.0710589 7.0710462,0 0,-7.0710768 Z"
         style="fill:#808080;fill-opacity:0.50196078;fill-rule:evenodd;stroke:#808080;stroke-width:1pt;stroke-opacity:0.50196078"
         transform="scale(0.8,0.8)"
         inkscape:connector-curvature="0" />
    </marker>
    <marker
       inkscape:stockid="DotM"
       orient="auto"
       refY="0"
       refX="0"
       id="DotM"
       style="overflow:visible"
       inkscape:isstock="true">
      <path
         id="path4282"
         d="m -2.5,-1 c 0,2.76 -2.24,5 -5,5 -2.76,0 -5,-2.24 -5,-5 0,-2.76 2.24,-5 5,-5 2.76,0 5,2.24 5,5 z"
         style="fill:#808080;fill-opacity:0.50196078;fill-rule:evenodd;stroke:#808080;stroke-width:1pt;stroke-opacity:0.50196078"
         transform="matrix(0.4,0,0,0.4,2.96,0.4)"
         inkscape:connector-curvature="0" />
    </marker>
    <marker
       inkscape:stockid="DiamondL"
       orient="auto"
       refY="0"
       refX="0"
       id="DiamondL"
       style="overflow:visible"
       inkscape:isstock="true">
      <path
         id="path4297"
         d="M 0,-7.0710768 -7.0710894,0 0,7.0710589 7.0710462,0 0,-7.0710768 Z"
         style="fill:#808080;fill-opacity:0.50196078;fill-rule:evenodd;stroke:#808080;stroke-width:1pt;stroke-opacity:0.50196078"
         transform="scale(0.8,0.8)"
         inkscape:connector-curvature="0" />
    </marker>
    <marker
       inkscape:stockid="Arrow1Lstart"
       orient="auto"
       refY="0"
       refX="0"
       id="marker4542"
       style="overflow:visible"
       inkscape:isstock="true">
      <path
         id="path4544"
         d="M 0,0 5,-5 -12.5,0 5,5 0,0 Z"
         style="fill:#808080;fill-opacity:0.50196078;fill-rule:evenodd;stroke:#808080;stroke-width:1pt;stroke-opacity:0.50196078"
         transform="matrix(0.8,0,0,0.8,10,0)"
         inkscape:connector-curvature="0" />
    </marker>
    <marker
       inkscape:stockid="Arrow2Lstart"
       orient="auto"
       refY="0"
       refX="0"
       id="marker4538"
       style="overflow:visible"
       inkscape:isstock="true">
      <path
         id="path4540"
         style="fill:#808080;fill-opacity:0.50196078;fill-rule:evenodd;stroke:#808080;stroke-width:0.625;stroke-linejoin:round;stroke-opacity:0.50196078"
         d="M 8.7185878,4.0337352 -2.2072895,0.01601326 8.7185884,-4.0017078 c -1.7454984,2.3720609 -1.7354408,5.6174519 -6e-7,8.035443 z"
         transform="matrix(1.1,0,0,1.1,1.1,0)"
         inkscape:connector-curvature="0" />
    </marker>
    <marker
       inkscape:stockid="Club"
       orient="auto"
       refY="0"
       refX="0"
       id="marker4534"
       style="overflow:visible"
       inkscape:isstock="true">
      <path
         id="path4536"
         d="m -1.5971367,-7.0977635 c -1.8892507,0 -3.426382,1.5371314 -3.426382,3.4263822 0,0.6566798 0.2383531,1.2269257 0.5594092,1.7481542 -0.038751,0.032111 -0.079672,0.058463 -0.1165436,0.093235 -0.6224234,-0.8549928 -1.5893983,-1.4451409 -2.7271199,-1.4451409 -1.8892515,-1e-7 -3.426382,1.5371314 -3.426382,3.42638214 0,1.88925076 1.5371305,3.42638216 3.426382,3.42638216 0.9934462,0 1.868619,-0.4420611 2.4940326,-1.1188187 -0.124687,0.3548915 -0.2097783,0.7214874 -0.2097783,1.1188187 0,1.8892506 1.5371313,3.4263822 3.426382,3.4263822 1.88925064,0 3.4263821,-1.5371316 3.4263821,-3.4263822 0,-0.7933959 -0.3155586,-1.4938285 -0.7691878,-2.0744763 C 2.4152718,1.7663868 3.7718375,2.2973711 4.7661444,3.8340272 4.0279463,3.0958289 3.5540908,1.7534117 3.5540908,-0.05852936 l -0.6293354,-0.04661745 0.5827179,-0.0233087 c 0,-1.81194109 0.4505466,-3.15435829 1.188745,-3.89255659 -0.9590906,1.4822308 -2.2571634,2.0263625 -3.5662345,2.3075635 0.4041964,-0.5619092 0.6992616,-1.213407 0.6992616,-1.9579327 0,-1.8892506 -1.53713146,-3.4263822 -3.4263821,-3.4263822 z"
         style="fill:#808080;fill-opacity:0.50196078;fill-rule:evenodd;stroke:#808080;stroke-width:0.74587913pt;stroke-opacity:0.50196078"
         transform="scale(0.6,0.6)"
         inkscape:connector-curvature="0" />
    </marker>
    <marker
       inkscape:stockid="Club"
       orient="auto"
       refY="0"
       refX="0"
       id="Club"
       style="overflow:visible"
       inkscape:isstock="true">
      <path
         id="path4447"
         d="m -1.5971367,-7.0977635 c -1.8892507,0 -3.426382,1.5371314 -3.426382,3.4263822 0,0.6566798 0.2383531,1.2269257 0.5594092,1.7481542 -0.038751,0.032111 -0.079672,0.058463 -0.1165436,0.093235 -0.6224234,-0.8549928 -1.5893983,-1.4451409 -2.7271199,-1.4451409 -1.8892515,-1e-7 -3.426382,1.5371314 -3.426382,3.42638214 0,1.88925076 1.5371305,3.42638216 3.426382,3.42638216 0.9934462,0 1.868619,-0.4420611 2.4940326,-1.1188187 -0.124687,0.3548915 -0.2097783,0.7214874 -0.2097783,1.1188187 0,1.8892506 1.5371313,3.4263822 3.426382,3.4263822 1.88925064,0 3.4263821,-1.5371316 3.4263821,-3.4263822 0,-0.7933959 -0.3155586,-1.4938285 -0.7691878,-2.0744763 C 2.4152718,1.7663868 3.7718375,2.2973711 4.7661444,3.8340272 4.0279463,3.0958289 3.5540908,1.7534117 3.5540908,-0.05852936 l -0.6293354,-0.04661745 0.5827179,-0.0233087 c 0,-1.81194109 0.4505466,-3.15435829 1.188745,-3.89255659 -0.9590906,1.4822308 -2.2571634,2.0263625 -3.5662345,2.3075635 0.4041964,-0.5619092 0.6992616,-1.213407 0.6992616,-1.9579327 0,-1.8892506 -1.53713146,-3.4263822 -3.4263821,-3.4263822 z"
         style="fill:#808080;fill-opacity:0.50196078;fill-rule:evenodd;stroke:#808080;stroke-width:0.74587913pt;stroke-opacity:0.50196078"
         transform="scale(0.6,0.6)"
         inkscape:connector-curvature="0" />
    </marker>
    <marker
       inkscape:stockid="Tail"
       orient="auto"
       refY="0"
       refX="0"
       id="marker4516"
       style="overflow:visible"
       inkscape:isstock="true">
      <g
         id="g4518"
         transform="scale(-1.2,-1.2)"
         style="fill:#808080;fill-opacity:0.50196078;stroke:#808080;stroke-opacity:0.50196078">
        <path
           id="path4520"
           d="M -3.8048674,-3.9585227 0.54352094,0"
           style="fill:#808080;fill-opacity:0.50196078;fill-rule:evenodd;stroke:#808080;stroke-width:0.80000001;stroke-linecap:round;stroke-opacity:0.50196078"
           inkscape:connector-curvature="0" />
        <path
           id="path4522"
           d="M -1.2866832,-3.9585227 3.0617053,0"
           style="fill:#808080;fill-opacity:0.50196078;fill-rule:evenodd;stroke:#808080;stroke-width:0.80000001;stroke-linecap:round;stroke-opacity:0.50196078"
           inkscape:connector-curvature="0" />
        <path
           id="path4524"
           d="M 1.3053582,-3.9585227 5.6537466,0"
           style="fill:#808080;fill-opacity:0.50196078;fill-rule:evenodd;stroke:#808080;stroke-width:0.80000001;stroke-linecap:round;stroke-opacity:0.50196078"
           inkscape:connector-curvature="0" />
        <path
           id="path4526"
           d="M -3.8048674,4.1775838 0.54352094,0.21974226"
           style="fill:#808080;fill-opacity:0.50196078;fill-rule:evenodd;stroke:#808080;stroke-width:0.80000001;stroke-linecap:round;stroke-opacity:0.50196078"
           inkscape:connector-curvature="0" />
        <path
           id="path4528"
           d="M -1.2866832,4.1775838 3.0617053,0.21974226"
           style="fill:#808080;fill-opacity:0.50196078;fill-rule:evenodd;stroke:#808080;stroke-width:0.80000001;stroke-linecap:round;stroke-opacity:0.50196078"
           inkscape:connector-curvature="0" />
        <path
           id="path4530"
           d="M 1.3053582,4.1775838 5.6537466,0.21974226"
           style="fill:#808080;fill-opacity:0.50196078;fill-rule:evenodd;stroke:#808080;stroke-width:0.80000001;stroke-linecap:round;stroke-opacity:0.50196078"
           inkscape:connector-curvature="0" />
      </g>
    </marker>
    <marker
       inkscape:stockid="Tail"
       orient="auto"
       refY="0"
       refX="0"
       id="marker4500"
       style="overflow:visible"
       inkscape:isstock="true">
      <g
         id="g4502"
         transform="scale(-1.2,-1.2)"
         style="fill:#808080;fill-opacity:0.50196078;stroke:#808080;stroke-opacity:0.50196078">
        <path
           id="path4504"
           d="M -3.8048674,-3.9585227 0.54352094,0"
           style="fill:#808080;fill-opacity:0.50196078;fill-rule:evenodd;stroke:#808080;stroke-width:0.80000001;stroke-linecap:round;stroke-opacity:0.50196078"
           inkscape:connector-curvature="0" />
        <path
           id="path4506"
           d="M -1.2866832,-3.9585227 3.0617053,0"
           style="fill:#808080;fill-opacity:0.50196078;fill-rule:evenodd;stroke:#808080;stroke-width:0.80000001;stroke-linecap:round;stroke-opacity:0.50196078"
           inkscape:connector-curvature="0" />
        <path
           id="path4508"
           d="M 1.3053582,-3.9585227 5.6537466,0"
           style="fill:#808080;fill-opacity:0.50196078;fill-rule:evenodd;stroke:#808080;stroke-width:0.80000001;stroke-linecap:round;stroke-opacity:0.50196078"
           inkscape:connector-curvature="0" />
        <path
           id="path4510"
           d="M -3.8048674,4.1775838 0.54352094,0.21974226"
           style="fill:#808080;fill-opacity:0.50196078;fill-rule:evenodd;stroke:#808080;stroke-width:0.80000001;stroke-linecap:round;stroke-opacity:0.50196078"
           inkscape:connector-curvature="0" />
        <path
           id="path4512"
           d="M -1.2866832,4.1775838 3.0617053,0.21974226"
           style="fill:#808080;fill-opacity:0.50196078;fill-rule:evenodd;stroke:#808080;stroke-width:0.80000001;stroke-linecap:round;stroke-opacity:0.50196078"
           inkscape:connector-curvature="0" />
        <path
           id="path4514"
           d="M 1.3053582,4.1775838 5.6537466,0.21974226"
           style="fill:#808080;fill-opacity:0.50196078;fill-rule:evenodd;stroke:#808080;stroke-width:0.80000001;stroke-linecap:round;stroke-opacity:0.50196078"
           inkscape:connector-curvature="0" />
      </g>
    </marker>
    <marker
       inkscape:stockid="Arrow2Lstart"
       orient="auto"
       refY="0"
       refX="0"
       id="Arrow2Lstart"
       style="overflow:visible"
       inkscape:isstock="true">
      <path
         id="path4236"
         style="fill:#808080;fill-opacity:0.50196078;fill-rule:evenodd;stroke:#808080;stroke-width:0.625;stroke-linejoin:round;stroke-opacity:0.50196078"
         d="M 8.7185878,4.0337352 -2.2072895,0.01601326 8.7185884,-4.0017078 c -1.7454984,2.3720609 -1.7354408,5.6174519 -6e-7,8.035443 z"
         transform="matrix(1.1,0,0,1.1,1.1,0)"
         inkscape:connector-curvature="0" />
    </marker>
    <marker
       inkscape:stockid="TriangleInL"
       orient="auto"
       refY="0"
       refX="0"
       id="TriangleInL"
       style="overflow:visible"
       inkscape:isstock="true">
      <path
         id="path4351"
         d="m 5.77,0 -8.65,5 0,-10 8.65,5 z"
         style="fill:#808080;fill-opacity:0.50196078;fill-rule:evenodd;stroke:#808080;stroke-width:1pt;stroke-opacity:0.50196078"
         transform="scale(-0.8,-0.8)"
         inkscape:connector-curvature="0" />
    </marker>
    <marker
       inkscape:stockid="EmptyDiamondM"
       orient="auto"
       refY="0"
       refX="0"
       id="EmptyDiamondM"
       style="overflow:visible"
       inkscape:isstock="true">
      <path
         id="path4494"
         d="M 0,-7.0710768 -7.0710894,0 0,7.0710589 7.0710462,0 0,-7.0710768 Z"
         style="fill:#ffffff;fill-rule:evenodd;stroke:#808080;stroke-width:1pt;stroke-opacity:0.50196078"
         transform="scale(0.4,0.4)"
         inkscape:connector-curvature="0" />
    </marker>
    <marker
       inkscape:stockid="Arrow1Lstart"
       orient="auto"
       refY="0"
       refX="0"
       id="marker4490"
       style="overflow:visible"
       inkscape:isstock="true">
      <path
         id="path4218"
         d="M 0,0 5,-5 -12.5,0 5,5 0,0 Z"
         style="fill:#808080;fill-opacity:0.50196078;fill-rule:evenodd;stroke:#808080;stroke-width:1pt;stroke-opacity:0.50196078"
         transform="matrix(0.8,0,0,0.8,10,0)"
         inkscape:connector-curvature="0" />
    </marker>
    <marker
       inkscape:stockid="Arrow2Lend"
       orient="auto"
       refY="0"
       refX="0"
       id="Arrow2Lend"
       style="overflow:visible"
       inkscape:isstock="true">
      <path
         id="path4239"
         style="fill:#808080;fill-opacity:0.50196078;fill-rule:evenodd;stroke:#808080;stroke-width:0.625;stroke-linejoin:round;stroke-opacity:0.50196078"
         d="M 8.7185878,4.0337352 -2.2072895,0.01601326 8.7185884,-4.0017078 c -1.7454984,2.3720609 -1.7354408,5.6174519 -6e-7,8.035443 z"
         transform="matrix(-1.1,0,0,-1.1,-1.1,0)"
         inkscape:connector-curvature="0" />
    </marker>
    <marker
       inkscape:stockid="Tail"
       orient="auto"
       refY="0"
       refX="0"
       id="Tail"
       style="overflow:visible"
       inkscape:isstock="true">
      <g
         id="g4254"
         transform="scale(-1.2,-1.2)"
         style="fill:#808080;fill-opacity:0.50196078;stroke:#808080;stroke-opacity:0.50196078">
        <path
           id="path4256"
           d="M -3.8048674,-3.9585227 0.54352094,0"
           style="fill:#808080;fill-opacity:0.50196078;fill-rule:evenodd;stroke:#808080;stroke-width:0.80000001;stroke-linecap:round;stroke-opacity:0.50196078"
           inkscape:connector-curvature="0" />
        <path
           id="path4258"
           d="M -1.2866832,-3.9585227 3.0617053,0"
           style="fill:#808080;fill-opacity:0.50196078;fill-rule:evenodd;stroke:#808080;stroke-width:0.80000001;stroke-linecap:round;stroke-opacity:0.50196078"
           inkscape:connector-curvature="0" />
        <path
           id="path4260"
           d="M 1.3053582,-3.9585227 5.6537466,0"
           style="fill:#808080;fill-opacity:0.50196078;fill-rule:evenodd;stroke:#808080;stroke-width:0.80000001;stroke-linecap:round;stroke-opacity:0.50196078"
           inkscape:connector-curvature="0" />
        <path
           id="path4262"
           d="M -3.8048674,4.1775838 0.54352094,0.21974226"
           style="fill:#808080;fill-opacity:0.50196078;fill-rule:evenodd;stroke:#808080;stroke-width:0.80000001;stroke-linecap:round;stroke-opacity:0.50196078"
           inkscape:connector-curvature="0" />
        <path
           id="path4264"
           d="M -1.2866832,4.1775838 3.0617053,0.21974226"
           style="fill:#808080;fill-opacity:0.50196078;fill-rule:evenodd;stroke:#808080;stroke-width:0.80000001;stroke-linecap:round;stroke-opacity:0.50196078"
           inkscape:connector-curvature="0" />
        <path
           id="path4266"
           d="M 1.3053582,4.1775838 5.6537466,0.21974226"
           style="fill:#808080;fill-opacity:0.50196078;fill-rule:evenodd;stroke:#808080;stroke-width:0.80000001;stroke-linecap:round;stroke-opacity:0.50196078"
           inkscape:connector-curvature="0" />
      </g>
    </marker>
    <marker
       inkscape:stockid="DiamondLstart"
       orient="auto"
       refY="0"
       refX="0"
       id="DiamondLstart"
       style="overflow:visible"
       inkscape:isstock="true">
      <path
         id="path4306"
         d="M 0,-7.0710768 -7.0710894,0 0,7.0710589 7.0710462,0 0,-7.0710768 Z"
         style="fill:#808080;fill-opacity:0.50196078;fill-rule:evenodd;stroke:#808080;stroke-width:1pt;stroke-opacity:0.50196078"
         transform="matrix(0.8,0,0,0.8,5.6,0)"
         inkscape:connector-curvature="0" />
    </marker>
    <marker
       inkscape:stockid="EmptyDiamondS"
       orient="auto"
       refY="0"
       refX="0"
       id="EmptyDiamondS"
       style="overflow:visible"
       inkscape:isstock="true">
      <path
         id="path4330"
         d="M 0,-7.0710768 -7.0710894,0 0,7.0710589 7.0710462,0 0,-7.0710768 Z"
         style="fill:#ffffff;fill-rule:evenodd;stroke:#808080;stroke-width:1pt;stroke-opacity:0.50196078"
         transform="scale(0.2,0.2)"
         inkscape:connector-curvature="0" />
    </marker>
    <linearGradient
       osb:paint="gradient"
       id="linearGradient6117">
      <stop
         id="stop6119"
         offset="0"
         style="stop-color:#ffffff;stop-opacity:1;" />
      <stop
         id="stop6121"
         offset="1"
         style="stop-color:#ffffff;stop-opacity:0;" />
    </linearGradient>
    <marker
       inkscape:isstock="true"
       style="overflow:visible"
       id="Arrow1Lstart"
       refX="0"
       refY="0"
       orient="auto"
       inkscape:stockid="Arrow1Lstart">
      <path
         transform="matrix(0.8,0,0,0.8,10,0)"
         style="fill:#ffffff;fill-opacity:1;fill-rule:evenodd;stroke:#000000;stroke-width:1pt;stroke-opacity:1"
         d="M 0,0 5,-5 -12.5,0 5,5 0,0 Z"
         id="path5761"
         inkscape:connector-curvature="0" />
    </marker>
    <linearGradient
       osb:paint="solid"
       id="linearGradient4164">
      <stop
         id="stop4166"
         offset="0"
         style="stop-color:#000000;stop-opacity:1;" />
    </linearGradient>
    <font
       inkscape:label="font 1"
       id="font4198"
       horiz-adv-x="1024"
       horiz-origin-x="0"
       horiz-origin-y="0"
       vert-origin-x="45"
       vert-origin-y="90"
       vert-adv-y="90">
      <font-face
         font-family="SVGFont 1"
         id="font-face4200"
         units-per-em="1024" />
      <missing-glyph
         id="missing-glyph4202"
         d="M0,0h1000v1024h-1000z" />
    </font>
    <marker
       inkscape:stockid="DotL"
       orient="auto"
       refY="0"
       refX="0"
       id="marker4656"
       style="overflow:visible"
       inkscape:isstock="true">
      <path
         inkscape:connector-curvature="0"
         id="path4658"
         d="m -2.5,-1 c 0,2.76 -2.24,5 -5,5 -2.76,0 -5,-2.24 -5,-5 0,-2.76 2.24,-5 5,-5 2.76,0 5,2.24 5,5 z"
         style="fill:#ffffff;fill-opacity:1;fill-rule:evenodd;stroke:#808080;stroke-width:1pt;stroke-opacity:1"
         transform="matrix(0.8,0,0,0.8,5.92,0.8)" />
    </marker>
    <marker
       inkscape:stockid="DotL"
       orient="auto"
       refY="0"
       refX="0"
       id="DotL-3"
       style="overflow:visible"
       inkscape:isstock="true">
      <path
         inkscape:connector-curvature="0"
         id="path4279-7"
         d="m -2.5,-1 c 0,2.76 -2.24,5 -5,5 -2.76,0 -5,-2.24 -5,-5 0,-2.76 2.24,-5 5,-5 2.76,0 5,2.24 5,5 z"
         style="fill:#ffffff;fill-opacity:1;fill-rule:evenodd;stroke:#808080;stroke-width:1pt;stroke-opacity:1"
         transform="matrix(0.8,0,0,0.8,5.92,0.8)" />
    </marker>
    <marker
       inkscape:stockid="DotM"
       orient="auto"
       refY="0"
       refX="0"
       id="marker4597-1"
       style="overflow:visible"
       inkscape:isstock="true">
      <path
         id="path4599-6"
         d="m -2.5,-1 c 0,2.76 -2.24,5 -5,5 -2.76,0 -5,-2.24 -5,-5 0,-2.76 2.24,-5 5,-5 2.76,0 5,2.24 5,5 z"
         style="fill:#808080;fill-opacity:0.50196078;fill-rule:evenodd;stroke:#808080;stroke-width:1pt;stroke-opacity:0.50196078"
         transform="matrix(0.4,0,0,0.4,2.96,0.4)"
         inkscape:connector-curvature="0" />
    </marker>
    <marker
       inkscape:stockid="DotM"
       orient="auto"
       refY="0"
       refX="0"
       id="marker4593-6"
       style="overflow:visible"
       inkscape:isstock="true">
      <path
         id="path4595-6"
         d="m -2.5,-1 c 0,2.76 -2.24,5 -5,5 -2.76,0 -5,-2.24 -5,-5 0,-2.76 2.24,-5 5,-5 2.76,0 5,2.24 5,5 z"
         style="fill:#808080;fill-opacity:0.50196078;fill-rule:evenodd;stroke:#808080;stroke-width:1pt;stroke-opacity:0.50196078"
         transform="matrix(0.4,0,0,0.4,2.96,0.4)"
         inkscape:connector-curvature="0" />
    </marker>
    <marker
       inkscape:stockid="DotM"
       orient="auto"
       refY="0"
       refX="0"
       id="marker4597-1-3"
       style="overflow:visible"
       inkscape:isstock="true">
      <path
         id="path4599-6-0"
         d="m -2.5,-1 c 0,2.76 -2.24,5 -5,5 -2.76,0 -5,-2.24 -5,-5 0,-2.76 2.24,-5 5,-5 2.76,0 5,2.24 5,5 z"
         style="fill:#808080;fill-opacity:0.50196078;fill-rule:evenodd;stroke:#808080;stroke-width:1pt;stroke-opacity:0.50196078"
         transform="matrix(0.4,0,0,0.4,2.96,0.4)"
         inkscape:connector-curvature="0" />
    </marker>
    <marker
       inkscape:stockid="DotM"
       orient="auto"
       refY="0"
       refX="0"
       id="marker4593-6-6"
       style="overflow:visible"
       inkscape:isstock="true">
      <path
         id="path4595-6-6"
         d="m -2.5,-1 c 0,2.76 -2.24,5 -5,5 -2.76,0 -5,-2.24 -5,-5 0,-2.76 2.24,-5 5,-5 2.76,0 5,2.24 5,5 z"
         style="fill:#808080;fill-opacity:0.50196078;fill-rule:evenodd;stroke:#808080;stroke-width:1pt;stroke-opacity:0.50196078"
         transform="matrix(0.4,0,0,0.4,2.96,0.4)"
         inkscape:connector-curvature="0" />
    </marker>
    <marker
       inkscape:stockid="DotM"
       orient="auto"
       refY="0"
       refX="0"
       id="marker4597-1-0"
       style="overflow:visible"
       inkscape:isstock="true">
      <path
         id="path4599-6-1"
         d="m -2.5,-1 c 0,2.76 -2.24,5 -5,5 -2.76,0 -5,-2.24 -5,-5 0,-2.76 2.24,-5 5,-5 2.76,0 5,2.24 5,5 z"
         style="fill:#808080;fill-opacity:0.50196078;fill-rule:evenodd;stroke:#808080;stroke-width:1pt;stroke-opacity:0.50196078"
         transform="matrix(0.4,0,0,0.4,2.96,0.4)"
         inkscape:connector-curvature="0" />
    </marker>
    <marker
       inkscape:stockid="DotM"
       orient="auto"
       refY="0"
       refX="0"
       id="marker4593-6-5"
       style="overflow:visible"
       inkscape:isstock="true">
      <path
         id="path4595-6-4"
         d="m -2.5,-1 c 0,2.76 -2.24,5 -5,5 -2.76,0 -5,-2.24 -5,-5 0,-2.76 2.24,-5 5,-5 2.76,0 5,2.24 5,5 z"
         style="fill:#808080;fill-opacity:0.50196078;fill-rule:evenodd;stroke:#808080;stroke-width:1pt;stroke-opacity:0.50196078"
         transform="matrix(0.4,0,0,0.4,2.96,0.4)"
         inkscape:connector-curvature="0" />
    </marker>
  </defs>
  <metadata
     id="metadata7">
    <rdf:RDF>
      <cc:Work
         rdf:about="">
        <dc:format>image/svg+xml</dc:format>
        <dc:type
           rdf:resource="http://purl.org/dc/dcmitype/StillImage" />
        <dc:title></dc:title>
      </cc:Work>
    </rdf:RDF>
  </metadata>
  <g
     inkscape:label="Layer 2"
     id="layer2"
     inkscape:groupmode="layer"
     transform="translate(0,-145.27556)">
    <g
       id="g4937"
       transform="translate(1.6049043e-4,0.12681495)">
      <rect
         style="fill:#000000;fill-opacity:1;stroke:#000000;stroke-width:1;stroke-linejoin:miter;stroke-miterlimit:4;stroke-dasharray:none;stroke-opacity:1"
         id="rect5656-5-5-6"
         width="64"
         height="64"
         x="326.06775"
         y="987.25659" />
      <text
         xml:space="preserve"
         style="font-style:normal;font-variant:normal;font-weight:bold;font-stretch:normal;font-size:20px;line-height:100%;font-family:sans-serif;-inkscape-font-specification:'sans-serif, Bold';text-align:start;letter-spacing:0px;word-spacing:0px;writing-mode:lr-tb;text-anchor:start;fill:#000000;fill-opacity:1;stroke:none;stroke-width:1px;stroke-linecap:butt;stroke-linejoin:miter;stroke-opacity:1"
         x="325.26599"
         y="982.49408"
         id="text4239-7-8"
         sodipodi:linespacing="100%"><tspan
           sodipodi:role="line"
           id="tspan4241-5-2"
           x="325.26599"
           y="982.49408"
           style="font-style:normal;font-variant:normal;font-weight:bold;font-stretch:normal;font-size:20px;line-height:100%;font-family:sans-serif;-inkscape-font-specification:'sans-serif, Bold';text-align:start;writing-mode:lr-tb;text-anchor:start;fill:#ff0000;fill-opacity:1;stroke:none;stroke-opacity:1">TANK</tspan></text>
      <circle
         style="opacity:1;fill:#ffffff;fill-opacity:1;fill-rule:nonzero;stroke:#808080;stroke-width:13.01722527;stroke-linecap:butt;stroke-linejoin:bevel;stroke-miterlimit:4;stroke-dasharray:26.03445049, 13.01722524;stroke-dashoffset:0;stroke-opacity:1"
         id="path4171"
         transform="matrix(0.9454416,0.32579162,-0.32579162,0.9454416,0,0)"
         inkscape:transform-center-x="-293.80706"
         inkscape:transform-center-y="-123.93673"
         cy="846.99213"
         cx="670.59741"
         inkscape:export-xdpi="90"
         inkscape:export-ydpi="90"
         r="25.499836" />
    </g>
    <path
       inkscape:transform-center-y="0.52851508"
       inkscape:transform-center-x="-0.52851508"
       d="m 444.02225,383.87448 -17.37513,6.07982 -15.58661,-9.79371 -2.06105,-18.29239 13.01651,-13.01651 18.29238,2.06106 9.79372,15.58661 z"
       inkscape:randomized="0"
       inkscape:rounded="0"
       inkscape:flatsided="true"
       sodipodi:arg2="1.2341971"
       sodipodi:arg1="0.78539816"
       sodipodi:r2="19.112436"
       sodipodi:r1="21.213203"
       sodipodi:cy="368.87449"
       sodipodi:cx="429.02226"
       sodipodi:sides="7"
       id="path4172"
       style="opacity:1;fill:#b30000;fill-opacity:1;fill-rule:nonzero;stroke:#000000;stroke-width:14;stroke-linecap:butt;stroke-linejoin:miter;stroke-miterlimit:10;stroke-dasharray:28, 14;stroke-dashoffset:95.19999695;stroke-opacity:1"
       sodipodi:type="star" />
    <circle
       r="20"
       cy="352.73929"
       cx="324.80118"
       id="path4180"
       style="opacity:1;fill:#b30000;fill-opacity:1;fill-rule:nonzero;stroke:#000000;stroke-width:14;stroke-linecap:butt;stroke-linejoin:miter;stroke-miterlimit:4;stroke-dasharray:28, 14;stroke-dashoffset:105;stroke-opacity:1" />
    <path
       id="path4188"
       d="m 409.85689,301.21025 -17.2187,-16.44133 5.80908,-22.94653 23.02778,-6.5052 17.21871,16.44134 -5.80908,22.94653 z"
       style="opacity:0.98999999;fill:#730000;fill-opacity:1;fill-rule:nonzero;stroke:#000000;stroke-width:16.16367912;stroke-linecap:butt;stroke-linejoin:miter;stroke-miterlimit:4;stroke-dasharray:32.32735717, 16.16367858;stroke-dashoffset:105;stroke-opacity:1"
       inkscape:connector-curvature="0" />
    <g
       inkscape:export-ydpi="90"
       inkscape:export-xdpi="90"
       id="g4213"
       transform="translate(59.801156,-509.62286)">
      <path
         sodipodi:type="star"
         style="opacity:1;fill:#8d0000;fill-opacity:1;fill-rule:nonzero;stroke:#000000;stroke-width:14;stroke-linecap:butt;stroke-linejoin:miter;stroke-miterlimit:4;stroke-dasharray:28, 14;stroke-dashoffset:105;stroke-opacity:1"
         id="path4190"
         sodipodi:sides="6"
         sodipodi:cx="150"
         sodipodi:cy="772.36218"
         sodipodi:r1="41.231056"
         sodipodi:r2="35.707142"
         sodipodi:arg1="1.815775"
         sodipodi:arg2="2.3393738"
         inkscape:flatsided="true"
         inkscape:rounded="0"
         inkscape:randomized="0"
         d="m 140,812.36218 -29.64102,-28.66025 10,-40 L 160,732.36218 l 29.64102,28.66026 -10,40 z"
         transform="matrix(0.67552696,0,0,0.66828227,48.670956,256.20623)" />
      <text
         xml:space="preserve"
         style="font-style:normal;font-weight:normal;font-size:21.62521362px;line-height:125%;font-family:sans-serif;letter-spacing:0px;word-spacing:0px;fill:#ff0000;fill-opacity:1;stroke:none;stroke-width:1px;stroke-linecap:butt;stroke-linejoin:miter;stroke-opacity:1"
         x="145.1626"
         y="766.401"
         id="text4194"
         sodipodi:linespacing="125%"
         transform="scale(0.98266424,1.0176416)"><tspan
           sodipodi:role="line"
           id="tspan4196"
           x="145.1626"
           y="766.401"
           style="font-style:normal;font-variant:normal;font-weight:bold;font-stretch:normal;font-size:21.62521362px;line-height:125%;font-family:Verdana;-inkscape-font-specification:'Verdana, Bold';text-align:start;writing-mode:lr-tb;text-anchor:start;fill:#ff0000;fill-opacity:1">A</tspan></text>
    </g>
    <g
       inkscape:export-ydpi="90"
       inkscape:export-xdpi="90"
       transform="matrix(1.1583414,0,0,1.1652688,22.565246,-628.94023)"
       id="g4274">
      <path
         sodipodi:type="star"
         style="opacity:0.98999999;fill:#8d0000;fill-opacity:1;fill-rule:nonzero;stroke:#000000;stroke-width:14;stroke-linecap:butt;stroke-linejoin:miter;stroke-miterlimit:10;stroke-dasharray:28, 14;stroke-dashoffset:95.19999695;stroke-opacity:1"
         id="path4244"
         sodipodi:sides="11"
         sodipodi:cx="235"
         sodipodi:cy="722.36218"
         sodipodi:r1="20.615528"
         sodipodi:r2="19.780455"
         sodipodi:arg1="1.815775"
         sodipodi:arg2="2.1013743"
         inkscape:flatsided="true"
         inkscape:rounded="0"
         inkscape:randomized="0"
         d="m 230,742.36218 -10.01908,-5.87813 -5.25063,-10.36173 1.18486,-11.55554 7.24416,-9.08056 11.0035,-3.72256 11.26931,2.81733 7.95718,8.46273 2.1187,11.42127 -4.39244,10.75365 -9.50901,6.67182 z"
         inkscape:transform-center-x="-0.11914403"
         inkscape:transform-center-y="-0.29926113" />
      <text
         transform="scale(0.98266424,1.0176416)"
         sodipodi:linespacing="125%"
         id="text4194-9-6"
         y="717.565"
         x="231.11893"
         style="font-style:normal;font-weight:normal;font-size:21.62521362px;line-height:125%;font-family:sans-serif;letter-spacing:0px;word-spacing:0px;fill:#ff0000;fill-opacity:1;stroke:none;stroke-width:1px;stroke-linecap:butt;stroke-linejoin:miter;stroke-opacity:1"
         xml:space="preserve"><tspan
           style="font-style:normal;font-variant:normal;font-weight:bold;font-stretch:normal;font-size:21.62521362px;line-height:125%;font-family:Verdana;-inkscape-font-specification:'Verdana, Bold';text-align:start;writing-mode:lr-tb;text-anchor:start;fill:#ff0000;fill-opacity:1"
           y="717.565"
           x="231.11893"
           id="tspan4196-2-9"
           sodipodi:role="line">A</tspan></text>
    </g>
    <rect
       style="opacity:1;fill:#00af00;fill-opacity:1;fill-rule:nonzero;stroke:#006400;stroke-width:3.27632165;stroke-linecap:square;stroke-linejoin:miter;stroke-miterlimit:4;stroke-dasharray:none;stroke-dashoffset:0;stroke-opacity:1"
       id="rect6187"
       width="60.723679"
       height="60.723679"
       x="396.79565"
       y="449.0372" />
  </g>
  <g
     id="layer1"
     inkscape:groupmode="layer"
     inkscape:label="Layer 1"
     transform="translate(0,-145.27556)">
    <path
       inkscape:connector-curvature="0"
       id="path3364"
       d="m 291.11107,505.12841 -32.38623,-0.2757 -9.75933,-32.55742 26.35458,-19.84615 26.0474,20.29191 z"
       inkscape:transform-center-y="-2.7045428"
       inkscape:transform-center-x="-0.068700464"
       style="fill:#ffffff;fill-opacity:1;fill-rule:evenodd;stroke:#808080;stroke-width:9.99287605;stroke-linecap:butt;stroke-linejoin:miter;stroke-miterlimit:4;stroke-dasharray:none;stroke-opacity:1" />
    <rect
       y="477.94925"
       x="42.493484"
       height="64"
       width="64"
       id="rect5656-5"
       style="fill:none;fill-opacity:1;stroke:#000000;stroke-width:1;stroke-linejoin:miter;stroke-miterlimit:4;stroke-dasharray:none;stroke-opacity:1" />
    <g
       id="g4919"
       transform="translate(-18.538777,0.13847015)">
      <rect
         style="fill:#000000;fill-opacity:1;stroke:#000000;stroke-width:1;stroke-linejoin:miter;stroke-miterlimit:4;stroke-dasharray:none;stroke-opacity:1"
         id="rect5656-5-5-3"
         width="64"
         height="64"
         x="142.87975"
         y="987.52356" />
      <path
         sodipodi:type="star"
         style="opacity:1;fill:#ffffff;fill-opacity:1;stroke:#808080;stroke-width:11.94881821;stroke-linecap:butt;stroke-linejoin:miter;stroke-miterlimit:4;stroke-dasharray:none;stroke-opacity:1"
         id="path4213"
         sodipodi:sides="7"
         sodipodi:cx="147.34464"
         sodipodi:cy="959.44293"
         sodipodi:r1="26.18733"
         sodipodi:r2="13.093666"
         sodipodi:arg1="1.5707963"
         sodipodi:arg2="2.0195953"
         inkscape:flatsided="true"
         inkscape:rounded="0"
         inkscape:randomized="0"
         d="m 147.34464,985.63026 -20.47408,-9.85979 -5.05668,-22.15477 14.1685,-17.76674 22.72451,0 14.1685,17.76674 -5.05668,22.15476 z"
         inkscape:export-xdpi="90"
         inkscape:export-ydpi="90"
         transform="matrix(0.99161378,0,0,1.0171149,28.77078,42.007023)" />
      <text
         xml:space="preserve"
         style="font-style:normal;font-variant:normal;font-weight:bold;font-stretch:normal;font-size:20px;line-height:100%;font-family:sans-serif;-inkscape-font-specification:'sans-serif, Bold';text-align:start;letter-spacing:0px;word-spacing:0px;writing-mode:lr-tb;text-anchor:start;fill:#000000;fill-opacity:1;stroke:none;stroke-width:1px;stroke-linecap:butt;stroke-linejoin:miter;stroke-opacity:1"
         x="145.20248"
         y="981.98914"
         id="text4239"
         sodipodi:linespacing="100%"><tspan
           sodipodi:role="line"
           id="tspan4241"
           x="145.20248"
           y="981.98914"
           style="font-style:normal;font-variant:normal;font-weight:bold;font-stretch:normal;font-size:20px;line-height:100%;font-family:sans-serif;-inkscape-font-specification:'sans-serif, Bold';text-align:start;writing-mode:lr-tb;text-anchor:start;fill:#ff0000;fill-opacity:1;stroke:none;stroke-opacity:1">BASE</tspan></text>
    </g>
    <text
       sodipodi:linespacing="100%"
       id="text4239-8-5"
       y="466.72464"
       x="44.002251"
       style="font-style:normal;font-variant:normal;font-weight:bold;font-stretch:normal;font-size:20px;line-height:100%;font-family:sans-serif;-inkscape-font-specification:'sans-serif, Bold';text-align:start;letter-spacing:0px;word-spacing:0px;writing-mode:lr-tb;text-anchor:start;fill:#000000;fill-opacity:1;stroke:none;stroke-width:1px;stroke-linecap:butt;stroke-linejoin:miter;stroke-opacity:1"
       xml:space="preserve"><tspan
         style="font-style:normal;font-variant:normal;font-weight:bold;font-stretch:normal;font-size:20px;line-height:100%;font-family:sans-serif;-inkscape-font-specification:'sans-serif, Bold';text-align:start;writing-mode:lr-tb;text-anchor:start;fill:#ff0000;fill-opacity:1;stroke:none;stroke-opacity:1"
         y="466.72464"
         x="44.002251"
         id="tspan4241-6-5"
         sodipodi:role="line">BACK</tspan></text>
    <g
       id="g4931"
       transform="translate(-7.4876822,-0.40276476)">
      <rect
         style="fill:#000000;fill-opacity:1;stroke:#000000;stroke-width:1;stroke-linejoin:miter;stroke-miterlimit:4;stroke-dasharray:none;stroke-opacity:1"
         id="rect5656-5-5"
         width="64"
         height="64"
         x="230.50586"
         y="987.86401" />
      <circle
         style="opacity:1;fill:#ffffff;fill-opacity:1;fill-rule:nonzero;stroke:#808080;stroke-width:12.56441689;stroke-linecap:butt;stroke-linejoin:round;stroke-miterlimit:4;stroke-dasharray:50.25766871, 25.12883436, 12.56441718, 25.12883436;stroke-dashoffset:0;stroke-opacity:1"
         id="path4287"
         cx="262.50586"
         cy="1019.864"
         inkscape:export-xdpi="90"
         inkscape:export-ydpi="90"
         r="25.717791" />
      <text
         xml:space="preserve"
         style="font-style:normal;font-variant:normal;font-weight:bold;font-stretch:normal;font-size:20px;line-height:100%;font-family:sans-serif;-inkscape-font-specification:'sans-serif, Bold';text-align:start;letter-spacing:0px;word-spacing:0px;writing-mode:lr-tb;text-anchor:start;fill:#000000;fill-opacity:1;stroke:none;stroke-width:1px;stroke-linecap:butt;stroke-linejoin:miter;stroke-opacity:1"
         x="220.43431"
         y="981.98914"
         id="text4239-7"
         sodipodi:linespacing="100%"><tspan
           sodipodi:role="line"
           id="tspan4241-5"
           x="220.43431"
           y="981.98914"
           style="font-style:normal;font-variant:normal;font-weight:bold;font-stretch:normal;font-size:20px;line-height:100%;font-family:sans-serif;-inkscape-font-specification:'sans-serif, Bold';text-align:start;writing-mode:lr-tb;text-anchor:start;fill:#ff0000;fill-opacity:1;stroke:none;stroke-opacity:1">TURRET</tspan></text>
    </g>
    <g
       id="g4910"
       transform="translate(1.5000001e-4,0.00103677)">
      <rect
         style="fill:#000000;fill-opacity:1;stroke:#000000;stroke-width:1;stroke-linejoin:miter;stroke-miterlimit:4;stroke-dasharray:none;stroke-opacity:1"
         id="rect5656-5-5-1"
         width="64"
         height="64"
         x="23.255753"
         y="987.60742" />
      <text
         xml:space="preserve"
         style="font-style:normal;font-variant:normal;font-weight:bold;font-stretch:normal;font-size:20px;line-height:100%;font-family:sans-serif;-inkscape-font-specification:'sans-serif, Bold';text-align:start;letter-spacing:0px;word-spacing:0px;writing-mode:lr-tb;text-anchor:start;fill:#000000;fill-opacity:1;stroke:none;stroke-width:1px;stroke-linecap:butt;stroke-linejoin:miter;stroke-opacity:1"
         x="4.4372964"
         y="981.26251"
         id="text4239-8"
         sodipodi:linespacing="100%"><tspan
           sodipodi:role="line"
           id="tspan4241-6"
           x="4.4372964"
           y="981.26251"
           style="font-style:normal;font-variant:normal;font-weight:bold;font-stretch:normal;font-size:20px;line-height:100%;font-family:sans-serif;-inkscape-font-specification:'sans-serif, Bold';text-align:start;writing-mode:lr-tb;text-anchor:start;fill:#ff0000;fill-opacity:1;stroke:none;stroke-opacity:1">SOLDIER</tspan></text>
      <g
         id="g4170"
         transform="matrix(0.97094861,0,0,0.97094861,24.567257,28.88824)"
         inkscape:export-xdpi="90"
         inkscape:export-ydpi="90">
        <rect
           y="988.36218"
           x="0"
           height="64"
           width="64"
           id="rect5656"
           style="fill:none;fill-opacity:1;stroke:none;stroke-width:6.10289097;stroke-linejoin:miter;stroke-opacity:0" />
        <circle
           inkscape:export-ydpi="90"
           inkscape:export-xdpi="90"
           cy="1020.3621"
           cx="31.606714"
           id="path3392"
           style="color:#000000;clip-rule:nonzero;display:inline;overflow:visible;visibility:visible;opacity:1;isolation:auto;mix-blend-mode:normal;color-interpolation:sRGB;color-interpolation-filters:linearRGB;solid-color:#000000;solid-opacity:1;fill:#ffffff;fill-opacity:1;fill-rule:nonzero;stroke:#808080;stroke-width:12.30235577;stroke-linecap:butt;stroke-linejoin:miter;stroke-miterlimit:4;stroke-dasharray:none;stroke-dashoffset:0;stroke-opacity:1;color-rendering:auto;image-rendering:auto;shape-rendering:auto;text-rendering:auto;enable-background:accumulate"
           r="26.806282" />
      </g>
    </g>
    <g
       inkscape:export-ydpi="90"
       inkscape:export-xdpi="90"
       transform="matrix(0.97542294,0,0,0.97542294,176.12028,-513.24605)"
       id="g4170-6">
      <rect
         style="fill:none;fill-opacity:1;stroke:none;stroke-width:6.10289097;stroke-linejoin:miter;stroke-opacity:0"
         id="rect5656-8"
         width="64"
         height="64"
         x="0"
         y="988.36218" />
      <circle
         r="26.806282"
         style="color:#000000;clip-rule:nonzero;display:inline;overflow:visible;visibility:visible;opacity:1;isolation:auto;mix-blend-mode:normal;color-interpolation:sRGB;color-interpolation-filters:linearRGB;solid-color:#000000;solid-opacity:1;fill:#ffffff;fill-opacity:1;fill-rule:nonzero;stroke:#808080;stroke-width:12;stroke-linecap:butt;stroke-linejoin:miter;stroke-miterlimit:4;stroke-dasharray:none;stroke-dashoffset:0;stroke-opacity:1;color-rendering:auto;image-rendering:auto;shape-rendering:auto;text-rendering:auto;enable-background:accumulate"
         id="path3392-7"
         cx="31.606714"
         cy="1020.3621"
         inkscape:export-xdpi="90"
         inkscape:export-ydpi="90" />
    </g>
    <g
       id="g4968">
      <rect
         style="fill:#000000;fill-opacity:1;stroke:#000000;stroke-width:1;stroke-linejoin:miter;stroke-miterlimit:4;stroke-dasharray:none;stroke-opacity:1"
         id="rect5656-5-5-6-2"
         width="64"
         height="64"
         x="27.773705"
         y="725.22314" />
      <text
         xml:space="preserve"
         style="font-style:normal;font-variant:normal;font-weight:bold;font-stretch:normal;font-size:20px;line-height:100%;font-family:sans-serif;-inkscape-font-specification:'sans-serif, Bold';text-align:start;letter-spacing:0px;word-spacing:0px;writing-mode:lr-tb;text-anchor:start;fill:#000000;fill-opacity:1;stroke:none;stroke-width:1px;stroke-linecap:butt;stroke-linejoin:miter;stroke-opacity:1"
         x="22.667564"
         y="711.45709"
         id="text4239-7-8-5-4"
         sodipodi:linespacing="100%"><tspan
           sodipodi:role="line"
           id="tspan4241-5-2-3-9"
           x="22.667564"
           y="711.45709"
           style="font-style:normal;font-variant:normal;font-weight:bold;font-stretch:normal;font-size:20px;line-height:100%;font-family:sans-serif;-inkscape-font-specification:'sans-serif, Bold';text-align:start;writing-mode:lr-tb;text-anchor:start;fill:#ff0000;fill-opacity:1;stroke:none;stroke-opacity:1">SHIELD</tspan></text>
      <rect
         rx="11.106328"
         style="opacity:0.98999999;fill:none;fill-opacity:1;fill-rule:nonzero;stroke:#7fffff;stroke-width:6.2472887;stroke-linecap:round;stroke-linejoin:round;stroke-miterlimit:10;stroke-dasharray:none;stroke-dashoffset:0;stroke-opacity:1"
         id="rect4313"
         width="57.752712"
         height="57.752712"
         x="31.234154"
         y="728.45111"
         inkscape:export-xdpi="90"
         inkscape:export-ydpi="90" />
    </g>
    <g
       id="g4946">
      <text
         xml:space="preserve"
         style="font-style:normal;font-variant:normal;font-weight:bold;font-stretch:normal;font-size:20px;line-height:100%;font-family:sans-serif;-inkscape-font-specification:'sans-serif, Bold';text-align:start;letter-spacing:0px;word-spacing:0px;writing-mode:lr-tb;text-anchor:start;fill:#000000;fill-opacity:1;stroke:none;stroke-width:1px;stroke-linecap:butt;stroke-linejoin:miter;stroke-opacity:1"
         x="22.526134"
         y="854.61481"
         id="text4239-7-8-5"
         sodipodi:linespacing="100%"><tspan
           sodipodi:role="line"
           id="tspan4241-5-2-3"
           x="22.526134"
           y="854.61481"
           style="font-style:normal;font-variant:normal;font-weight:bold;font-stretch:normal;font-size:20px;line-height:100%;font-family:sans-serif;-inkscape-font-specification:'sans-serif, Bold';text-align:start;writing-mode:lr-tb;text-anchor:start;fill:#ff0000;fill-opacity:1;stroke:none;stroke-opacity:1">TREE</tspan></text>
      <rect
         style="fill:#000000;fill-opacity:1;stroke:#000000;stroke-width:1;stroke-linejoin:miter;stroke-miterlimit:4;stroke-dasharray:none;stroke-opacity:1"
         id="rect5656-5-5-6-2-4"
         width="64.000008"
         height="64.000008"
         x="18.402302"
         y="861.27356" />
      <path
         inkscape:export-ydpi="90"
         inkscape:export-xdpi="90"
         inkscape:connector-curvature="0"
         id="path4327"
         d="m 50.112255,866.6043 a 13.325931,13.325986 0.01508079 0 0 -9.96366,4.3332 13.325931,13.325986 0.01508079 0 0 -1.2192,-0.0748 13.325931,13.325986 0.01508079 0 0 -13.47478,13.17536 13.325931,13.325986 0.01508079 0 0 0.27184,2.7477 13.325931,13.325985 0 0 0 -2.49377,7.7435 13.325931,13.325985 0 0 0 1.89637,6.8237 13.325931,13.325986 0.01508079 0 0 -0.013,0.2149 13.325931,13.325986 0.01508079 0 0 13.17526,13.4732 13.325931,13.325986 0.01508079 0 0 1.19642,-0.05 13.325931,13.325986 0.01508079 0 0 10.20457,4.9518 13.325931,13.325986 0.01508079 0 0 8.73305,-3.1547 13.325931,13.325986 0.01508079 0 0 1.80684,0.1595 13.325931,13.325986 0.01508079 0 0 13.47478,-13.1753 13.325931,13.325986 0.01508079 0 0 -0.0439,-1.1297 13.325931,13.325985 0 0 0 2.90885,-8.2888 13.325931,13.325985 0 0 0 -2.69561,-8.0136 13.325931,13.325986 0.01508079 0 0 0.16929,-1.8736 13.325931,13.325986 0.01508079 0 0 -13.17689,-13.47491 13.325931,13.325986 0.01508079 0 0 -1.01248,0.0309 13.325931,13.325986 0.01508079 0 0 -9.7439,-4.41784 z"
         style="opacity:1;fill:#00af00;fill-opacity:1;fill-rule:nonzero;stroke:#006400;stroke-width:10.6607666;stroke-linecap:square;stroke-linejoin:round;stroke-miterlimit:4;stroke-dasharray:none;stroke-dashoffset:0;stroke-opacity:1" />
    </g>
    <g
       id="g4959"
       transform="translate(29.791076,0.51363911)">
      <text
         xml:space="preserve"
         style="font-style:normal;font-variant:normal;font-weight:bold;font-stretch:normal;font-size:20px;line-height:100%;font-family:sans-serif;-inkscape-font-specification:'sans-serif, Bold';text-align:start;letter-spacing:0px;word-spacing:0px;writing-mode:lr-tb;text-anchor:start;fill:#000000;fill-opacity:1;stroke:none;stroke-width:1px;stroke-linecap:butt;stroke-linejoin:miter;stroke-opacity:1"
         x="101.90816"
         y="854.45087"
         id="text4239-7-8-3"
         sodipodi:linespacing="100%"><tspan
           sodipodi:role="line"
           id="tspan4241-5-2-4"
           x="101.90816"
           y="854.45087"
           style="font-style:normal;font-variant:normal;font-weight:bold;font-stretch:normal;font-size:20px;line-height:100%;font-family:sans-serif;-inkscape-font-specification:'sans-serif, Bold';text-align:start;writing-mode:lr-tb;text-anchor:start;fill:#ff0000;fill-opacity:1;stroke:none;stroke-opacity:1">POD</tspan></text>
      <rect
         style="fill:#000000;fill-opacity:1;stroke:#000000;stroke-width:1;stroke-linejoin:miter;stroke-miterlimit:4;stroke-dasharray:none;stroke-opacity:1"
         id="rect5656-5-5-6-2-4-4"
         width="64.000015"
         height="64.000015"
         x="97.046036"
         y="861.76263" />
      <circle
         style="opacity:1;fill:#ffffff;fill-opacity:1;fill-rule:nonzero;stroke:#808080;stroke-width:2.70584655;stroke-linecap:butt;stroke-linejoin:bevel;stroke-miterlimit:4;stroke-dasharray:none;stroke-dashoffset:0;stroke-opacity:1;marker-start:url(#marker4656);marker-mid:url(#DotL-3)"
         id="path4171-6"
         transform="matrix(0.71311621,0.70104584,-0.70104584,0.71311621,0,0)"
         inkscape:transform-center-x="-318.54273"
         inkscape:transform-center-y="14.609413"
         cy="546.88947"
         cx="718.59338"
         inkscape:export-xdpi="90"
         inkscape:export-ydpi="90"
         r="27.599459" />
    </g>
    <g
       id="g4975">
      <rect
         style="fill:#000000;fill-opacity:1;stroke:#000000;stroke-width:1;stroke-linejoin:miter;stroke-miterlimit:4;stroke-dasharray:none;stroke-opacity:1"
         id="rect5656-5-5-6-2-5"
         width="64"
         height="64"
         x="131.15271"
         y="725.75208" />
      <path
         transform="matrix(0.39263761,-0.51769611,0.51141901,0.38317282,-444.89918,694.70328)"
         inkscape:transform-center-y="-0.051581658"
         inkscape:transform-center-x="0.28858119"
         d="m 526.05241,830.2272 -6.87586,13.2649 -10.99806,10.11324 -13.79372,5.74178 -14.92567,0.67778 -14.25735,-4.46797 -11.86939,-9.07483 -8.04981,-12.58712 -3.25929,-14.58121 1.92433,-14.81661 6.87586,-13.26489 10.99806,-10.11325 13.79372,-5.74178 14.92567,-0.67778 14.25735,4.46798 11.86939,9.07482 8.04981,12.58712 3.25929,14.58122 z"
         inkscape:randomized="0"
         inkscape:rounded="0"
         inkscape:flatsided="true"
         sodipodi:arg2="0.47821969"
         sodipodi:arg1="0.30368676"
         sodipodi:r2="23.048861"
         sodipodi:r1="43.02103"
         sodipodi:cy="817.36218"
         sodipodi:cx="485"
         sodipodi:sides="18"
         id="path4197"
         style="opacity:1;fill:none;fill-opacity:1;fill-rule:nonzero;stroke:#808080;stroke-width:3.44205594;stroke-linecap:butt;stroke-linejoin:bevel;stroke-miterlimit:10;stroke-dasharray:none;stroke-dashoffset:0;stroke-opacity:0.50196078;marker-start:url(#marker4597);marker-mid:url(#marker4593)"
         sodipodi:type="star" />
      <path
         transform="matrix(0.19242821,-0.25469747,0.25064192,0.18851435,-134.64828,726.25541)"
         inkscape:transform-center-y="-0.051581658"
         inkscape:transform-center-x="0.28858119"
         d="m 526.05241,830.2272 -6.87586,13.2649 -10.99806,10.11324 -13.79372,5.74178 -14.92567,0.67778 -14.25735,-4.46797 -11.86939,-9.07483 -8.04981,-12.58712 -3.25929,-14.58121 1.92433,-14.81661 6.87586,-13.26489 10.99806,-10.11325 13.79372,-5.74178 14.92567,-0.67778 14.25735,4.46798 11.86939,9.07482 8.04981,12.58712 3.25929,14.58122 z"
         inkscape:randomized="0"
         inkscape:rounded="0"
         inkscape:flatsided="true"
         sodipodi:arg2="0.47821969"
         sodipodi:arg1="0.30368676"
         sodipodi:r2="23.048861"
         sodipodi:r1="43.02103"
         sodipodi:cy="817.36218"
         sodipodi:cx="485"
         sodipodi:sides="18"
         id="path4197-0"
         style="opacity:1;fill:none;fill-opacity:1;fill-rule:nonzero;stroke:#808080;stroke-width:3.44205594;stroke-linecap:butt;stroke-linejoin:bevel;stroke-miterlimit:10;stroke-dasharray:none;stroke-dashoffset:0;stroke-opacity:0.50196078;marker-start:url(#marker4597-1);marker-mid:url(#marker4593-6)"
         sodipodi:type="star" />
      <path
         transform="matrix(0.28874299,-0.38191334,0.37609401,0.28267318,-283.90075,710.99324)"
         inkscape:transform-center-y="-0.051581658"
         inkscape:transform-center-x="0.28858119"
         d="m 526.05241,830.2272 -6.87586,13.2649 -10.99806,10.11324 -13.79372,5.74178 -14.92567,0.67778 -14.25735,-4.46797 -11.86939,-9.07483 -8.04981,-12.58712 -3.25929,-14.58121 1.92433,-14.81661 6.87586,-13.26489 10.99806,-10.11325 13.79372,-5.74178 14.92567,-0.67778 14.25735,4.46798 11.86939,9.07482 8.04981,12.58712 3.25929,14.58122 z"
         inkscape:randomized="0"
         inkscape:rounded="0"
         inkscape:flatsided="true"
         sodipodi:arg2="0.47821969"
         sodipodi:arg1="0.30368676"
         sodipodi:r2="23.048861"
         sodipodi:r1="43.02103"
         sodipodi:cy="817.36218"
         sodipodi:cx="485"
         sodipodi:sides="18"
         id="path4197-0-9"
         style="opacity:1;fill:none;fill-opacity:1;fill-rule:nonzero;stroke:#808080;stroke-width:3.44205594;stroke-linecap:butt;stroke-linejoin:bevel;stroke-miterlimit:10;stroke-dasharray:none;stroke-dashoffset:0;stroke-opacity:0.50196078;marker-start:url(#marker4597-1-3);marker-mid:url(#marker4593-6-6)"
         sodipodi:type="star" />
      <path
         transform="matrix(0.09624766,-0.12730445,0.12536467,0.09422439,14.396169,741.53884)"
         inkscape:transform-center-y="-0.051581658"
         inkscape:transform-center-x="0.28858119"
         d="m 526.05241,830.2272 -6.87586,13.2649 -10.99806,10.11324 -13.79372,5.74178 -14.92567,0.67778 -14.25735,-4.46797 -11.86939,-9.07483 -8.04981,-12.58712 -3.25929,-14.58121 1.92433,-14.81661 6.87586,-13.26489 10.99806,-10.11325 13.79372,-5.74178 14.92567,-0.67778 14.25735,4.46798 11.86939,9.07482 8.04981,12.58712 3.25929,14.58122 z"
         inkscape:randomized="0"
         inkscape:rounded="0"
         inkscape:flatsided="true"
         sodipodi:arg2="0.47821969"
         sodipodi:arg1="0.30368676"
         sodipodi:r2="23.048861"
         sodipodi:r1="43.02103"
         sodipodi:cy="817.36218"
         sodipodi:cx="485"
         sodipodi:sides="18"
         id="path4197-0-7"
         style="opacity:1;fill:none;fill-opacity:1;fill-rule:nonzero;stroke:#808080;stroke-width:3.44205594;stroke-linecap:butt;stroke-linejoin:bevel;stroke-miterlimit:10;stroke-dasharray:none;stroke-dashoffset:0;stroke-opacity:0.50196078;marker-start:url(#marker4597-1-0);marker-mid:url(#marker4593-6-5)"
         sodipodi:type="star" />
    </g>
  </g>
</svg>
